{
    "hostname": "Host_FIRST",
    "serverUpTime": {
        "days": 0,
        "hours": 1,
        "minutes": 22,
        "seconds": 2
    },
    "services": [
        {
            "username": "NT AUTHORITY\\LocalService",
            "status": "OK",
            "name": "eventlog",
            "state": "Running"
        },
        {
            "username": "NT AUTHORITY\\LocalService",
            "status": "OK",
            "name": "wscsvc",
            "state": "Running"
        }
    ],
    "drives": [
        {
            "letter": "C",
            "sizeKB": 146138,
            "freeSpaceKB": 17480.43,
            "status": "healthy"
        },
        {
            "letter": "H",
            "sizeKB": 60045,
            "freeSpaceKB": 6565.75,
            "status": "warning"
        }
    ],
    "customs": [
        {
            "name": "Software XX license check",
            "statusDetails": "License is currently valid and expires by YY days",
            "status": "healthy"
        },
        {
            "name": "Custom application check",
            "statusDetails": "Something worrying is happening with application",
            "status": "warning"
        }
    ]
}